{
    "name": "User",
    "rootNamespace": "",
    "references": [
        "GUID:0d8beb7f090555447a6cf5ce9e54dbb4",
        "GUID:6055be8ebefd69e48b49212b09b47b2f",
        "GUID:8512284144a996a44ae5cbf53080cbeb",
        "GUID:16b7be8d9df0eb6428b2b16559375451"
    ],
    "includePlatforms": [],
    "excludePlatforms": [],
    "allowUnsafeCode": false,
    "overrideReferences": false,
    "precompiledReferences": [],
    "autoReferenced": true,
    "defineConstraints": [],
    "versionDefines": [],
    "noEngineReferences": false
}