%YAML 1.1
%TAG !u! tag:unity3d.com,2011:
--- !u!687078895 &4343727234628468602
SpriteAtlas:
  m_ObjectHideFlags: 0
  m_CorrespondingSourceObject: {fileID: 0}
  m_PrefabInstance: {fileID: 0}
  m_PrefabAsset: {fileID: 0}
  m_Name: Eyes_Atlas
  m_EditorData:
    serializedVersion: 2
    textureSettings:
      serializedVersion: 2
      anisoLevel: 1
      compressionQuality: 50
      maxTextureSize: 2048
      textureCompression: 0
      filterMode: 1
      generateMipMaps: 0
      readable: 0
      crunchedCompression: 0
      sRGB: 1
    platformSettings:
    - serializedVersion: 3
      m_BuildTarget: DefaultTexturePlatform
      m_MaxTextureSize: 1024
      m_ResizeAlgorithm: 0
      m_TextureFormat: -1
      m_TextureCompression: 1
      m_CompressionQuality: 50
      m_CrunchedCompression: 0
      m_AllowsAlphaSplitting: 0
      m_Overridden: 0
      m_AndroidETC2FallbackOverride: 0
      m_ForceMaximumCompressionQuality_BC6H_BC7: 0
    packingSettings:
      serializedVersion: 2
      padding: 4
      blockOffset: 1
      allowAlphaSplitting: 0
      enableRotation: 0
      enableTightPacking: 0
    secondaryTextureSettings: {}
    variantMultiplier: 1
    packables:
    - {fileID: 102900000, guid: 8599b4a693242f14cbd977f5c971c71e, type: 3}
    totalSpriteSurfaceArea: 193409
    bindAsDefault: 1
    isAtlasV2: 0
    cachedData: {fileID: 0}
  m_MasterAtlas: {fileID: 0}
  m_PackedSprites:
  - {fileID: 21300000, guid: 90f4abf07c0f4384da953b25c154c8f3, type: 3}
  - {fileID: 21300000, guid: 347cc0015ee47024b8f8ee0d70eb1b46, type: 3}
  - {fileID: 21300000, guid: 528b2f21b4cdad94f90ad3b6fc91e8e3, type: 3}
  - {fileID: 21300000, guid: a29cfc516e6914341b97b85a6232dbc4, type: 3}
  - {fileID: 21300000, guid: 973238d3b8c4df34b97291b43437626b, type: 3}
  - {fileID: 21300000, guid: a9cb2c659f030bf4e862c65bd7a55396, type: 3}
  - {fileID: 21300000, guid: 9be618750fd17ca448aaa1fb951fbd3b, type: 3}
  - {fileID: 21300000, guid: 18df92b57ab1fe746b439638f539544e, type: 3}
  - {fileID: 21300000, guid: c9463b870b3c32346846778a1ce63ac4, type: 3}
  - {fileID: 21300000, guid: d040d6486821e904dbb39762083ce7f9, type: 3}
  - {fileID: 21300000, guid: dc2cfce889abca542bda4348d9ffcaa0, type: 3}
  - {fileID: 21300000, guid: 956e8cdaacd1beb4db423319ef02d6a4, type: 3}
  - {fileID: 21300000, guid: e4da3c3b79c18a54eb45196d3cb79e29, type: 3}
  - {fileID: 21300000, guid: 5fe5f18b83810e44ba432c546a4f5b7a, type: 3}
  - {fileID: 21300000, guid: f0bae20ca7cd23840bc0494335472833, type: 3}
  - {fileID: 21300000, guid: 30e3df6ce169e8544a10e6cdafb6aca2, type: 3}
  - {fileID: 21300000, guid: e8b0719cc21bb5542bb57b5e0bee7e0f, type: 3}
  - {fileID: 21300000, guid: 4377eaac931605a42bba4204805a06f2, type: 3}
  - {fileID: 21300000, guid: 212dd5ad60004024ba03d7933ece3182, type: 3}
  - {fileID: 21300000, guid: 1ae9750f450c01c41bcf8097b1f33a72, type: 3}
  m_PackedSpriteNamesToIndex:
  - eyes_10
  - eyes_2
  - eyes_1
  - eyes_2_icon
  - eyes_1_icon
  - eyes_7_icon
  - eyes_6
  - eyes_4
  - eyes_9
  - eyes_6_icon
  - eyes_8
  - eyes_4_icon
  - eyes_10_icon
  - eyes_3
  - eyes_5_icon
  - eyes_8_icon
  - eyes_9_icon
  - eyes_5
  - eyes_3_icon
  - eyes_7
  m_RenderDataMap: {}
  m_Tag: Eyes_Atlas
  m_IsVariant: 0
