%YAML 1.1
%TAG !u! tag:unity3d.com,2011:
--- !u!687078895 &4343727234628468602
SpriteAtlas:
  m_ObjectHideFlags: 0
  m_CorrespondingSourceObject: {fileID: 0}
  m_PrefabInstance: {fileID: 0}
  m_PrefabAsset: {fileID: 0}
  m_Name: Mouths_Atlas
  m_EditorData:
    serializedVersion: 2
    textureSettings:
      serializedVersion: 2
      anisoLevel: 1
      compressionQuality: 50
      maxTextureSize: 2048
      textureCompression: 0
      filterMode: 1
      generateMipMaps: 0
      readable: 0
      crunchedCompression: 0
      sRGB: 1
    platformSettings:
    - serializedVersion: 3
      m_BuildTarget: DefaultTexturePlatform
      m_MaxTextureSize: 1024
      m_ResizeAlgorithm: 0
      m_TextureFormat: -1
      m_TextureCompression: 1
      m_CompressionQuality: 50
      m_CrunchedCompression: 0
      m_AllowsAlphaSplitting: 0
      m_Overridden: 0
      m_AndroidETC2FallbackOverride: 0
      m_ForceMaximumCompressionQuality_BC6H_BC7: 0
    packingSettings:
      serializedVersion: 2
      padding: 4
      blockOffset: 1
      allowAlphaSplitting: 0
      enableRotation: 0
      enableTightPacking: 0
    secondaryTextureSettings: {}
    variantMultiplier: 1
    packables:
    - {fileID: 102900000, guid: 304b44bb027210141a36c0d06953161f, type: 3}
    totalSpriteSurfaceArea: 230628
    bindAsDefault: 1
    isAtlasV2: 0
    cachedData: {fileID: 0}
  m_MasterAtlas: {fileID: 0}
  m_PackedSprites:
  - {fileID: 21300000, guid: fda79c7013b5840498e318ffe0dd4b93, type: 3}
  - {fileID: 21300000, guid: 5471d4810a462934b9e4f1165c31b16a, type: 3}
  - {fileID: 21300000, guid: 7c4b48a1d67eecc459c08efe50aa7152, type: 3}
  - {fileID: 21300000, guid: 90ce3a121f1846d44b1d366ecf56c276, type: 3}
  - {fileID: 21300000, guid: 312064731f51a684781dac86cf93cd92, type: 3}
  - {fileID: 21300000, guid: 517827d3485886943a9caa5b7304a8f1, type: 3}
  - {fileID: 21300000, guid: 800cf1e6ca6b245439ecabe487e5e5b2, type: 3}
  - {fileID: 21300000, guid: 279a50e8c54a53f47b0d0b2a735d820a, type: 3}
  - {fileID: 21300000, guid: c863b7295b85028469f6781c7a10152d, type: 3}
  - {fileID: 21300000, guid: 9688a1d93f9882544956d396cb871488, type: 3}
  - {fileID: 21300000, guid: ea7475f9b22cbab49ad3530ba4b3db2e, type: 3}
  - {fileID: 21300000, guid: 4a2427f956cbe31458e8d9c50d42e3a9, type: 3}
  - {fileID: 21300000, guid: c9e9ccf9255aa4141863498233445d02, type: 3}
  - {fileID: 21300000, guid: 3ce3a25a5b0c9fb4486dbb39e2ac99f2, type: 3}
  - {fileID: 21300000, guid: 7543d9da53d6892498d54b415f0eef9d, type: 3}
  - {fileID: 21300000, guid: 9e69bc6c9807919439790694e718aac2, type: 3}
  - {fileID: 21300000, guid: 82279bac62f271041a61a0dcfa881e10, type: 3}
  - {fileID: 21300000, guid: a8f91e4d18efaac46b718e2ab55e1b26, type: 3}
  - {fileID: 21300000, guid: 055065ad3af0ed240919b15032654c5c, type: 3}
  - {fileID: 21300000, guid: a340650e8f45bbc4dad37287d54c41e3, type: 3}
  - {fileID: 21300000, guid: 5b82a90e658674045858542200cc4846, type: 3}
  - {fileID: 21300000, guid: d9d2fa6f1d2991141bc068cdda24bd88, type: 3}
  m_PackedSpriteNamesToIndex:
  - mouth_icon_08
  - mouth_icon_01
  - mouth_5
  - mouth_icon_05
  - mouth_7
  - mouth_11
  - mouth_6
  - mouth_4
  - mouth_icon_04
  - mouth_icon_07
  - mouth_1
  - mouth_2
  - mouth_icon_11
  - mouth_icon_06
  - mouth_icon_09
  - mouth_icon_03
  - mouth_icon_02
  - mouth_9
  - mouth_icon_10
  - mouth_10
  - mouth_3
  - mouth_8
  m_RenderDataMap: {}
  m_Tag: Mouths_Atlas
  m_IsVariant: 0
