%YAML 1.1
%TAG !u! tag:unity3d.com,2011:
--- !u!687078895 &4343727234628468602
SpriteAtlas:
  m_ObjectHideFlags: 0
  m_CorrespondingSourceObject: {fileID: 0}
  m_PrefabInstance: {fileID: 0}
  m_PrefabAsset: {fileID: 0}
  m_Name: UI_Atlas
  m_EditorData:
    serializedVersion: 2
    textureSettings:
      serializedVersion: 2
      anisoLevel: 1
      compressionQuality: 50
      maxTextureSize: 2048
      textureCompression: 0
      filterMode: 1
      generateMipMaps: 0
      readable: 0
      crunchedCompression: 0
      sRGB: 1
    platformSettings:
    - serializedVersion: 3
      m_BuildTarget: DefaultTexturePlatform
      m_MaxTextureSize: 2048
      m_ResizeAlgorithm: 0
      m_TextureFormat: -1
      m_TextureCompression: 1
      m_CompressionQuality: 50
      m_CrunchedCompression: 0
      m_AllowsAlphaSplitting: 0
      m_Overridden: 0
      m_AndroidETC2FallbackOverride: 0
      m_ForceMaximumCompressionQuality_BC6H_BC7: 0
    packingSettings:
      serializedVersion: 2
      padding: 4
      blockOffset: 1
      allowAlphaSplitting: 0
      enableRotation: 0
      enableTightPacking: 0
    secondaryTextureSettings: {}
    variantMultiplier: 1
    packables:
    - {fileID: 102900000, guid: 0027250d8af95d64989f8981e2576783, type: 3}
    totalSpriteSurfaceArea: 2765026
    bindAsDefault: 1
    isAtlasV2: 0
    cachedData: {fileID: 0}
  m_MasterAtlas: {fileID: 0}
  m_PackedSprites:
  - {fileID: 21300000, guid: 62bd83a0d2dcf914884ac8b6d64df6f3, type: 3}
  - {fileID: 21300000, guid: a7764812bc45b5844918c57f74c4bfaf, type: 3}
  - {fileID: 21300000, guid: 9d6a11361e6a2cc4c9c6724c4c419147, type: 3}
  - {fileID: 21300000, guid: 984f3c6a258a3e84cb741c7a844fe850, type: 3}
  - {fileID: 21300000, guid: 4e72c58b62eb6704389b2d58eca5ebcb, type: 3}
  - {fileID: 21300000, guid: 40de35ce27f7a834794884ccaf21dfec, type: 3}
  - {fileID: 21300000, guid: 9a287bbf1b85fcc4c8ced8ec9f03fa6b, type: 3}
  m_PackedSpriteNamesToIndex:
  - ui_frame
  - avatar_creation_background
  - ui_level
  - ui_prise
  - Character
  - button_empty
  - Lock
  m_RenderDataMap: {}
  m_Tag: UI_Atlas
  m_IsVariant: 0
