%YAML 1.1
%TAG !u! tag:unity3d.com,2011:
--- !u!114 &11400000
MonoBehaviour:
  m_ObjectHideFlags: 0
  m_CorrespondingSourceObject: {fileID: 0}
  m_PrefabInstance: {fileID: 0}
  m_PrefabAsset: {fileID: 0}
  m_GameObject: {fileID: 0}
  m_Enabled: 1
  m_EditorHideFlags: 0
  m_Script: {fileID: 11500000, guid: bbb281ee3bf0b054c82ac2347e9e782c, type: 3}
  m_Name: PurchaseOptions
  m_EditorClassIdentifier: 
  m_GroupName: PurchaseOptions
  m_Data:
    m_SerializedData: []
  m_GUID: 0ca11180f80198f47a8b294e3e61fde9
  m_SerializeEntries:
  - m_GUID: 25b2576a3fe87d14bb7c0a0af99e00a8
    m_Address: outfit_icon_01
    m_ReadOnly: 0
    m_SerializedLabels:
    - outfit_icon
    m_MainAsset: {fileID: 0}
    m_TargetAsset: {fileID: 0}
  - m_GUID: 727ca5b645e2d7a4f8a5457eb8d87ed0
    m_Address: outfit_icon_02
    m_ReadOnly: 0
    m_SerializedLabels:
    - outfit_icon
    m_MainAsset: {fileID: 0}
    m_TargetAsset: {fileID: 0}
  - m_GUID: 9515d326ecb2d8946a828c9eb0f76354
    m_Address: outfit_icon_03
    m_ReadOnly: 0
    m_SerializedLabels:
    - outfit_icon
    m_MainAsset: {fileID: 0}
    m_TargetAsset: {fileID: 0}
  - m_GUID: 394f74e8938104946854a981030a42e9
    m_Address: outfit_icon_04
    m_ReadOnly: 0
    m_SerializedLabels:
    - outfit_icon
    m_MainAsset: {fileID: 0}
    m_TargetAsset: {fileID: 0}
  - m_GUID: 5389de238851e8e4d962412abfa8e4ca
    m_Address: outfit_icon_05
    m_ReadOnly: 0
    m_SerializedLabels:
    - outfit_icon
    m_MainAsset: {fileID: 0}
    m_TargetAsset: {fileID: 0}
  - m_GUID: 1ba00c66c1576f54e8cd305a1ee5a4b0
    m_Address: outfit_icon_06
    m_ReadOnly: 0
    m_SerializedLabels:
    - outfit_icon
    m_MainAsset: {fileID: 0}
    m_TargetAsset: {fileID: 0}
  - m_GUID: 8928ce4b6d9b1244b9e7257caa0cc838
    m_Address: outfit_icon_07
    m_ReadOnly: 0
    m_SerializedLabels:
    - outfit_icon
    m_MainAsset: {fileID: 0}
    m_TargetAsset: {fileID: 0}
  - m_GUID: 3c655c7ff571fbb42a708b15971733df
    m_Address: outfit_icon_08
    m_ReadOnly: 0
    m_SerializedLabels:
    - outfit_icon
    m_MainAsset: {fileID: 0}
    m_TargetAsset: {fileID: 0}
  - m_GUID: d8add123e2f8daf4da93dd26a88b37ac
    m_Address: outfit_icon_09
    m_ReadOnly: 0
    m_SerializedLabels:
    - outfit_icon
    m_MainAsset: {fileID: 0}
    m_TargetAsset: {fileID: 0}
  - m_GUID: 3721039c8c79d954a9ba27a6f2090a61
    m_Address: outfit_icon_10
    m_ReadOnly: 0
    m_SerializedLabels:
    - outfit_icon
    m_MainAsset: {fileID: 0}
    m_TargetAsset: {fileID: 0}
  - m_GUID: 4cd75e5debd2c0f4c8a46a416262c5d1
    m_Address: outfit_01
    m_ReadOnly: 0
    m_SerializedLabels:
    - outfit
    m_MainAsset: {fileID: 0}
    m_TargetAsset: {fileID: 0}
  - m_GUID: 6c36164d55be7db43a67e4d8906ace29
    m_Address: outfit_02
    m_ReadOnly: 0
    m_SerializedLabels:
    - outfit
    m_MainAsset: {fileID: 0}
    m_TargetAsset: {fileID: 0}
  - m_GUID: 4ee051cfa53a2944e92e471b5b88e826
    m_Address: outfit_03
    m_ReadOnly: 0
    m_SerializedLabels:
    - outfit
    m_MainAsset: {fileID: 0}
    m_TargetAsset: {fileID: 0}
  - m_GUID: b67a32a9ef9535243948e2f5f4a07685
    m_Address: outfit_04
    m_ReadOnly: 0
    m_SerializedLabels:
    - outfit
    m_MainAsset: {fileID: 0}
    m_TargetAsset: {fileID: 0}
  - m_GUID: f11f4e3d33beb6f4abff1b547fdde575
    m_Address: outfit_05
    m_ReadOnly: 0
    m_SerializedLabels:
    - outfit
    m_MainAsset: {fileID: 0}
    m_TargetAsset: {fileID: 0}
  - m_GUID: 8c7710a5aab7c46439bee2bc47119dcf
    m_Address: outfit_06
    m_ReadOnly: 0
    m_SerializedLabels:
    - outfit
    m_MainAsset: {fileID: 0}
    m_TargetAsset: {fileID: 0}
  - m_GUID: 0c12e092a4d697046b7a0e7a7050171c
    m_Address: outfit_07
    m_ReadOnly: 0
    m_SerializedLabels:
    - outfit
    m_MainAsset: {fileID: 0}
    m_TargetAsset: {fileID: 0}
  - m_GUID: 3b6ee2899a028134e97dd2b3ba5f45fd
    m_Address: outfit_08
    m_ReadOnly: 0
    m_SerializedLabels:
    - outfit
    m_MainAsset: {fileID: 0}
    m_TargetAsset: {fileID: 0}
  - m_GUID: 90f5dbbec6a57af46910847d1b8df2ab
    m_Address: outfit_09
    m_ReadOnly: 0
    m_SerializedLabels:
    - outfit
    m_MainAsset: {fileID: 0}
    m_TargetAsset: {fileID: 0}
  - m_GUID: 3ed8c5fe7d66f1e4da9c2bbfb35c0678
    m_Address: outfit_10
    m_ReadOnly: 0
    m_SerializedLabels:
    - outfit
    m_MainAsset: {fileID: 0}
    m_TargetAsset: {fileID: 0}
  - m_GUID: ea7475f9b22cbab49ad3530ba4b3db2e
    m_Address: mouth_1
    m_ReadOnly: 0
    m_SerializedLabels:
    - mouth
    m_MainAsset: {fileID: 0}
    m_TargetAsset: {fileID: 0}
  - m_GUID: 4a2427f956cbe31458e8d9c50d42e3a9
    m_Address: mouth_2
    m_ReadOnly: 0
    m_SerializedLabels:
    - mouth
    m_MainAsset: {fileID: 0}
    m_TargetAsset: {fileID: 0}
  - m_GUID: 5b82a90e658674045858542200cc4846
    m_Address: mouth_3
    m_ReadOnly: 0
    m_SerializedLabels:
    - mouth
    m_MainAsset: {fileID: 0}
    m_TargetAsset: {fileID: 0}
  - m_GUID: 279a50e8c54a53f47b0d0b2a735d820a
    m_Address: mouth_4
    m_ReadOnly: 0
    m_SerializedLabels:
    - mouth
    m_MainAsset: {fileID: 0}
    m_TargetAsset: {fileID: 0}
  - m_GUID: 7c4b48a1d67eecc459c08efe50aa7152
    m_Address: mouth_5
    m_ReadOnly: 0
    m_SerializedLabels:
    - mouth
    m_MainAsset: {fileID: 0}
    m_TargetAsset: {fileID: 0}
  - m_GUID: 800cf1e6ca6b245439ecabe487e5e5b2
    m_Address: mouth_6
    m_ReadOnly: 0
    m_SerializedLabels:
    - mouth
    m_MainAsset: {fileID: 0}
    m_TargetAsset: {fileID: 0}
  - m_GUID: 312064731f51a684781dac86cf93cd92
    m_Address: mouth_7
    m_ReadOnly: 0
    m_SerializedLabels:
    - mouth
    m_MainAsset: {fileID: 0}
    m_TargetAsset: {fileID: 0}
  - m_GUID: d9d2fa6f1d2991141bc068cdda24bd88
    m_Address: mouth_8
    m_ReadOnly: 0
    m_SerializedLabels:
    - mouth
    m_MainAsset: {fileID: 0}
    m_TargetAsset: {fileID: 0}
  - m_GUID: a8f91e4d18efaac46b718e2ab55e1b26
    m_Address: mouth_9
    m_ReadOnly: 0
    m_SerializedLabels:
    - mouth
    m_MainAsset: {fileID: 0}
    m_TargetAsset: {fileID: 0}
  - m_GUID: a340650e8f45bbc4dad37287d54c41e3
    m_Address: mouth_10
    m_ReadOnly: 0
    m_SerializedLabels:
    - mouth
    m_MainAsset: {fileID: 0}
    m_TargetAsset: {fileID: 0}
  - m_GUID: 517827d3485886943a9caa5b7304a8f1
    m_Address: mouth_11
    m_ReadOnly: 0
    m_SerializedLabels:
    - mouth
    m_MainAsset: {fileID: 0}
    m_TargetAsset: {fileID: 0}
  - m_GUID: 5471d4810a462934b9e4f1165c31b16a
    m_Address: mouth_icon_01
    m_ReadOnly: 0
    m_SerializedLabels:
    - mouth_icon
    m_MainAsset: {fileID: 0}
    m_TargetAsset: {fileID: 0}
  - m_GUID: 82279bac62f271041a61a0dcfa881e10
    m_Address: mouth_icon_02
    m_ReadOnly: 0
    m_SerializedLabels:
    - mouth_icon
    m_MainAsset: {fileID: 0}
    m_TargetAsset: {fileID: 0}
  - m_GUID: 9e69bc6c9807919439790694e718aac2
    m_Address: mouth_icon_03
    m_ReadOnly: 0
    m_SerializedLabels:
    - mouth_icon
    m_MainAsset: {fileID: 0}
    m_TargetAsset: {fileID: 0}
  - m_GUID: c863b7295b85028469f6781c7a10152d
    m_Address: mouth_icon_04
    m_ReadOnly: 0
    m_SerializedLabels:
    - mouth_icon
    m_MainAsset: {fileID: 0}
    m_TargetAsset: {fileID: 0}
  - m_GUID: 90ce3a121f1846d44b1d366ecf56c276
    m_Address: mouth_icon_05
    m_ReadOnly: 0
    m_SerializedLabels:
    - mouth_icon
    m_MainAsset: {fileID: 0}
    m_TargetAsset: {fileID: 0}
  - m_GUID: 3ce3a25a5b0c9fb4486dbb39e2ac99f2
    m_Address: mouth_icon_06
    m_ReadOnly: 0
    m_SerializedLabels:
    - mouth_icon
    m_MainAsset: {fileID: 0}
    m_TargetAsset: {fileID: 0}
  - m_GUID: 9688a1d93f9882544956d396cb871488
    m_Address: mouth_icon_07
    m_ReadOnly: 0
    m_SerializedLabels:
    - mouth_icon
    m_MainAsset: {fileID: 0}
    m_TargetAsset: {fileID: 0}
  - m_GUID: fda79c7013b5840498e318ffe0dd4b93
    m_Address: mouth_icon_08
    m_ReadOnly: 0
    m_SerializedLabels:
    - mouth_icon
    m_MainAsset: {fileID: 0}
    m_TargetAsset: {fileID: 0}
  - m_GUID: 7543d9da53d6892498d54b415f0eef9d
    m_Address: mouth_icon_09
    m_ReadOnly: 0
    m_SerializedLabels:
    - mouth_icon
    m_MainAsset: {fileID: 0}
    m_TargetAsset: {fileID: 0}
  - m_GUID: 055065ad3af0ed240919b15032654c5c
    m_Address: mouth_icon_10
    m_ReadOnly: 0
    m_SerializedLabels:
    - mouth_icon
    m_MainAsset: {fileID: 0}
    m_TargetAsset: {fileID: 0}
  - m_GUID: c9e9ccf9255aa4141863498233445d02
    m_Address: mouth_icon_11
    m_ReadOnly: 0
    m_SerializedLabels:
    - mouth_icon
    m_MainAsset: {fileID: 0}
    m_TargetAsset: {fileID: 0}
  - m_GUID: 528b2f21b4cdad94f90ad3b6fc91e8e3
    m_Address: eyes_1
    m_ReadOnly: 0
    m_SerializedLabels:
    - eyes
    m_MainAsset: {fileID: 0}
    m_TargetAsset: {fileID: 0}
  - m_GUID: 347cc0015ee47024b8f8ee0d70eb1b46
    m_Address: eyes_2
    m_ReadOnly: 0
    m_SerializedLabels:
    - eyes
    m_MainAsset: {fileID: 0}
    m_TargetAsset: {fileID: 0}
  - m_GUID: 5fe5f18b83810e44ba432c546a4f5b7a
    m_Address: eyes_3
    m_ReadOnly: 0
    m_SerializedLabels:
    - eyes
    m_MainAsset: {fileID: 0}
    m_TargetAsset: {fileID: 0}
  - m_GUID: 18df92b57ab1fe746b439638f539544e
    m_Address: eyes_4
    m_ReadOnly: 0
    m_SerializedLabels:
    - eyes
    m_MainAsset: {fileID: 0}
    m_TargetAsset: {fileID: 0}
  - m_GUID: 4377eaac931605a42bba4204805a06f2
    m_Address: eyes_5
    m_ReadOnly: 0
    m_SerializedLabels:
    - eyes
    m_MainAsset: {fileID: 0}
    m_TargetAsset: {fileID: 0}
  - m_GUID: 9be618750fd17ca448aaa1fb951fbd3b
    m_Address: eyes_6
    m_ReadOnly: 0
    m_SerializedLabels:
    - eyes
    m_MainAsset: {fileID: 0}
    m_TargetAsset: {fileID: 0}
  - m_GUID: 1ae9750f450c01c41bcf8097b1f33a72
    m_Address: eyes_7
    m_ReadOnly: 0
    m_SerializedLabels:
    - eyes
    m_MainAsset: {fileID: 0}
    m_TargetAsset: {fileID: 0}
  - m_GUID: dc2cfce889abca542bda4348d9ffcaa0
    m_Address: eyes_8
    m_ReadOnly: 0
    m_SerializedLabels:
    - eyes
    m_MainAsset: {fileID: 0}
    m_TargetAsset: {fileID: 0}
  - m_GUID: c9463b870b3c32346846778a1ce63ac4
    m_Address: eyes_9
    m_ReadOnly: 0
    m_SerializedLabels:
    - eyes
    m_MainAsset: {fileID: 0}
    m_TargetAsset: {fileID: 0}
  - m_GUID: 90f4abf07c0f4384da953b25c154c8f3
    m_Address: eyes_10
    m_ReadOnly: 0
    m_SerializedLabels:
    - eyes
    m_MainAsset: {fileID: 0}
    m_TargetAsset: {fileID: 0}
  - m_GUID: 973238d3b8c4df34b97291b43437626b
    m_Address: eyes_1_icon
    m_ReadOnly: 0
    m_SerializedLabels:
    - eyes_icon
    m_MainAsset: {fileID: 0}
    m_TargetAsset: {fileID: 0}
  - m_GUID: a29cfc516e6914341b97b85a6232dbc4
    m_Address: eyes_2_icon
    m_ReadOnly: 0
    m_SerializedLabels:
    - eyes_icon
    m_MainAsset: {fileID: 0}
    m_TargetAsset: {fileID: 0}
  - m_GUID: 212dd5ad60004024ba03d7933ece3182
    m_Address: eyes_3_icon
    m_ReadOnly: 0
    m_SerializedLabels:
    - eyes_icon
    m_MainAsset: {fileID: 0}
    m_TargetAsset: {fileID: 0}
  - m_GUID: 956e8cdaacd1beb4db423319ef02d6a4
    m_Address: eyes_4_icon
    m_ReadOnly: 0
    m_SerializedLabels:
    - eyes_icon
    m_MainAsset: {fileID: 0}
    m_TargetAsset: {fileID: 0}
  - m_GUID: f0bae20ca7cd23840bc0494335472833
    m_Address: eyes_5_icon
    m_ReadOnly: 0
    m_SerializedLabels:
    - eyes_icon
    m_MainAsset: {fileID: 0}
    m_TargetAsset: {fileID: 0}
  - m_GUID: d040d6486821e904dbb39762083ce7f9
    m_Address: eyes_6_icon
    m_ReadOnly: 0
    m_SerializedLabels:
    - eyes_icon
    m_MainAsset: {fileID: 2800000, guid: d040d6486821e904dbb39762083ce7f9, type: 3}
    m_TargetAsset: {fileID: 2800000, guid: d040d6486821e904dbb39762083ce7f9, type: 3}
  - m_GUID: a9cb2c659f030bf4e862c65bd7a55396
    m_Address: eyes_7_icon
    m_ReadOnly: 0
    m_SerializedLabels:
    - eyes_icon
    m_MainAsset: {fileID: 0}
    m_TargetAsset: {fileID: 0}
  - m_GUID: 30e3df6ce169e8544a10e6cdafb6aca2
    m_Address: eyes_8_icon
    m_ReadOnly: 0
    m_SerializedLabels:
    - eyes_icon
    m_MainAsset: {fileID: 2800000, guid: 30e3df6ce169e8544a10e6cdafb6aca2, type: 3}
    m_TargetAsset: {fileID: 2800000, guid: 30e3df6ce169e8544a10e6cdafb6aca2, type: 3}
  - m_GUID: e8b0719cc21bb5542bb57b5e0bee7e0f
    m_Address: eyes_9_icon
    m_ReadOnly: 0
    m_SerializedLabels:
    - eyes_icon
    m_MainAsset: {fileID: 0}
    m_TargetAsset: {fileID: 0}
  - m_GUID: e4da3c3b79c18a54eb45196d3cb79e29
    m_Address: eyes_10_icon
    m_ReadOnly: 0
    m_SerializedLabels:
    - eyes_icon
    m_MainAsset: {fileID: 0}
    m_TargetAsset: {fileID: 0}
  - m_GUID: a872b4a31ce71dc43b3413cfc8e60e4e
    m_Address: tab_button
    m_ReadOnly: 0
    m_SerializedLabels:
    - ui_prefabs
    m_MainAsset: {fileID: 8014196371161645364, guid: a872b4a31ce71dc43b3413cfc8e60e4e, type: 3}
    m_TargetAsset: {fileID: 8014196371161645364, guid: a872b4a31ce71dc43b3413cfc8e60e4e, type: 3}
  - m_GUID: abe3da8ceb9058d45be27d2b0fb82401
    m_Address: store_item
    m_ReadOnly: 0
    m_SerializedLabels:
    - ui_prefabs
    m_MainAsset: {fileID: 0}
    m_TargetAsset: {fileID: 0}
  m_ReadOnly: 0
  m_Settings: {fileID: 11400000, guid: 970858335d2b6954daf7a25592fcf634, type: 2}
  m_SchemaSet:
    m_Schemas:
    - {fileID: 11400000, guid: 097c63aaaa8be8845b53eb8b54ed532d, type: 2}
    - {fileID: 11400000, guid: 77e365710293dc142b8990a9dce87ca4, type: 2}
